<?xml version="1.0" encoding="UTF-8" standalone="no"?>
<svg
   xmlns:dc="http://purl.org/dc/elements/1.1/"
   xmlns:cc="http://creativecommons.org/ns#"
   xmlns:rdf="http://www.w3.org/1999/02/22-rdf-syntax-ns#"
   xmlns:svg="http://www.w3.org/2000/svg"
   xmlns="http://www.w3.org/2000/svg"
   xmlns:sodipodi="http://sodipodi.sourceforge.net/DTD/sodipodi-0.dtd"
   xmlns:inkscape="http://www.inkscape.org/namespaces/inkscape"
   width="100mm"
   height="100mm"
   viewBox="0 0 100 100"
   version="1.1"
   id="svg8"
   sodipodi:docname="Resume_Icon.svg"
   inkscape:version="1.0.2-2 (e86c870879, 2021-01-15)">
  <defs
     id="defs2" />
  <sodipodi:namedview
     id="base"
     pagecolor="#ffffff"
     bordercolor="#666666"
     borderopacity="1.0"
     inkscape:pageopacity="1"
     inkscape:pageshadow="2"
     inkscape:zoom="0.98994949"
     inkscape:cx="228.60559"
     inkscape:cy="381.73682"
     inkscape:document-units="mm"
     inkscape:current-layer="layer1"
     inkscape:document-rotation="0"
     showgrid="false"
     inkscape:window-width="1858"
     inkscape:window-height="1057"
     inkscape:window-x="1134"
     inkscape:window-y="456"
     inkscape:window-maximized="1" />
  <metadata
     id="metadata5">
    <rdf:RDF>
      <cc:Work
         rdf:about="">
        <dc:format>image/svg+xml</dc:format>
        <dc:type
           rdf:resource="http://purl.org/dc/dcmitype/StillImage" />
        <dc:title></dc:title>
      </cc:Work>
    </rdf:RDF>
  </metadata>
  <g
     inkscape:label="Layer 1"
     inkscape:groupmode="layer"
     id="layer1">
    <g
       id="g165"
       transform="translate(-53.294643,-86.934524)">
      <circle
         style="fill:#b3b3b3;fill-rule:evenodd;stroke-width:0.228121"
         id="path10"
         cx="103.30849"
         cy="137.11414"
         r="50" />
      <rect
         style="fill:#4d4d4d;stroke-width:0.178889"
         id="rect153"
         width="63.418854"
         height="59.520512"
         x="73.018318"
         y="108.96213" />
      <rect
         style="fill:#ff0000;stroke-width:0.16825"
         id="rect14"
         width="27.204746"
         height="25.508793"
         x="78.141281"
         y="112.88655" />
      <rect
         style="fill:#00ff00;stroke-width:0.16825"
         id="rect14-8"
         width="27.204746"
         height="25.508793"
         x="-132.55077"
         y="-138.39536"
         transform="scale(-1)" />
      <ellipse
         style="fill:#ff0000;stroke-width:0.171927"
         id="path16"
         cx="105.69933"
         cy="125.47744"
         rx="8.4794006"
         ry="5.3960905" />
      <rect
         style="fill:#0000ff;stroke-width:0.16825"
         id="rect14-8-4"
         width="27.204746"
         height="25.508793"
         x="-105.34604"
         y="-163.90414"
         transform="scale(-1)" />
      <ellipse
         style="fill:#0000ff;stroke-width:0.171927"
         id="path16-2-2"
         cx="-138.06833"
         cy="91.920303"
         rx="7.8488593"
         ry="5.8295889"
         transform="rotate(-90)" />
      <rect
         style="fill:#ffff00;stroke-width:0.16825"
         id="rect14-8-4-5"
         width="27.204746"
         height="25.508793"
         x="-132.55077"
         y="-163.90414"
         transform="scale(-1)" />
      <ellipse
         style="fill:#00ff00;stroke-width:0.171927"
         id="path16-2"
         cx="-137.9048"
         cy="118.77176"
         rx="7.8488593"
         ry="5.8295889"
         transform="rotate(-90)" />
      <ellipse
         style="fill:#ffff00;stroke-width:0.171927"
         id="path16-27"
         cx="104.99273"
         cy="150.49568"
         rx="8.4794006"
         ry="5.3960905" />
    </g>
  </g>
</svg>
